RomuAnalyst - Lignes de métro parisien
…
table_filtrée <- metro1[grepl(paste(sep, collapse = "|"), metro1$lines), ]

# Fonction de filtrage pour les valeurs exactes
filtrer_valeurs_exactes <- function(metro1, lines, sep) {
  pattern <- paste0("\\b(", paste(sep, collapse = "|"), ")\\b")
  table_filtrée <- metro1[grepl(pattern, metro1[[lines]]), ]
  return(table_filtrée)
}

table_filtrée <- filtrer_valeurs_exactes(metro1, "lines", sep)

print(table_filtrée)

# A tibble: 109 × 12
   name             caption lines connect_rer connect_tramway connect_transilien
   <chr>            <chr>   <chr> <chr>       <chr>           <chr>             
 1 Argentine        <NA>    1     <NA>        <NA>            <NA>              
 2 Bastille         <NA>    1, 5… <NA>        <NA>            <NA>              
 3 Bérault          <NA>    1     <NA>        <NA>            <NA>              
 4 Champs-Élysées—… Grand … 1, 13 <NA>        <NA>            <NA>              
 5 Charles de Gaul… <NA>    1, 2… A           <NA>            <NA>              
 6 Château de Vinc… <NA>    1     <NA>        <NA>            <NA>              
 7 Châtelet         <NA>    1, 4… A, B, D     <NA>            <NA>              
 8 Concorde         <NA>    1, 8… <NA>        <NA>            <NA>              
 9 Esplanade de La… <NA>    1     <NA>        <NA>            <NA>              
10 Franklin D. Roo… <NA>    1, 9  <NA>        <NA>            <NA>              
# ℹ 99 more rows
# ℹ 6 more variables: connect_other <chr>, passengers <int>, latitude <dbl>,
#   longitude <dbl>, location <chr>, sepa <list>
…
